Music and movies
…
# Dataframe
df <- CM_themes %>%
 select(track.album.release_date, energy, tempo) %>%
 mutate(
  year = as.Date(track.album.release_date, format="%Y"),
)

# summarize
by_year <- df %>%
    group_by(year) %>%
    summarize(energy=mean(energy), tempo=mean(tempo))
by_year

## # A tibble: 30 x 3
##    year       energy tempo
##  * <date>      <dbl> <dbl>
##  1 1966-02-12 0.895  108. 
##  2 1984-02-12 0.508   92.4
##  3 1985-02-12 0.623  111. 
##  4 1989-02-12 0.475   73.6
##  5 1990-02-12 0.260  108. 
##  6 1991-02-12 0.0976 117. 
##  7 1993-02-12 0.122  100. 
##  8 1994-02-12 0.06    87.6
##  9 1997-02-12 0.254   85.0
## 10 2000-02-12 0.562  148. 
## # ... with 20 more rows
…
